testfile,bytes,words,unique words,time,nˆ2,n*m,lg(n*m), (n*m)*lg(n*m)
tiny.txt,238,38,29,18,1444,1102,10,11020
small.txt,20422,2308,233,11,5326864,537764,19,10217516
MetaMorph.txt,141449,22128,2967,36,489648384,65653776,25,1641344400
Species.txt,1292498,174145,8991,104,30326481025,1565737695,30,46972130850
Ulysses.txt,1573079,225598,29127,91,50894457604,6570992946,32,210271774272
WarPeace.txt,3226654,480969,17561,91,231331178961,8446296609,32,270281491488
Bulk.txt,17069578,2378679,97116,394,5658113785041,231007789764,37,8547288221268
